EESchema Schematic File Version 2
LIBS:power
LIBS:device
LIBS:switches
LIBS:relays
LIBS:motors
LIBS:transistors
LIBS:conn
LIBS:linear
LIBS:regul
LIBS:74xx
LIBS:cmos4000
LIBS:adc-dac
LIBS:memory
LIBS:xilinx
LIBS:microcontrollers
LIBS:dsp
LIBS:microchip
LIBS:analog_switches
LIBS:motorola
LIBS:texas
LIBS:intel
LIBS:audio
LIBS:interface
LIBS:digital-audio
LIBS:philips
LIBS:display
LIBS:cypress
LIBS:siliconi
LIBS:opto
LIBS:atmel
LIBS:contrib
LIBS:valves
LIBS:Power_converter_V4-cache
EELAYER 25 0
EELAYER END
$Descr A4 11693 8268
encoding utf-8
Sheet 1 7
Title ""
Date "20 apr 2016"
Rev ""
Comp ""
Comment1 ""
Comment2 ""
Comment3 ""
Comment4 ""
$EndDescr
$Sheet
S 6350 3600 1900 2300
U 57067DBF
F0 "Microcontroller Block" 60
F1 "microcontroller_block.sch" 60
F2 "+5VLow" I T 6550 3600 60 
F3 "GNDLow" I T 6450 3600 60 
F4 "PWMH1" O B 7400 5900 60 
F5 "PWML1" O B 7250 5900 60 
F6 "GNDPWM" O B 7100 5900 60 
F7 "RO" I T 7800 3600 60 
F8 "miso" I T 7400 3600 60 
F9 "ss" O T 7200 3600 60 
F10 "mosi" O T 7300 3600 60 
F11 "clk" O T 7100 3600 60 
F12 "DI" O T 7900 3600 60 
F13 "DE/RE" O T 8000 3600 60 
$EndSheet
$Sheet
S 9050 3950 1650 900 
U 57067DFF
F0 "External Connection Block" 60
F1 "external_connection_block.sch" 60
F2 "GNDLow" I L 9050 4700 60 
F3 "+5VLow" I L 9050 4050 60 
F4 "DE/RE" I L 9050 4450 60 
F5 "DI" I L 9050 4300 60 
F6 "RO" O R 10700 4400 60 
$EndSheet
Text Notes 1350 5000 0    60   ~ 0
POWER BLOCK
Text Notes 4000 2750 0    60   ~ 0
MEASUREMENT BLOCK
Text Notes 4900 4750 2    60   ~ 0
FEEDER BLOCK
Text Notes 4700 6500 2    60   ~ 0
DRIVER BLOCK
Text Notes 6800 4750 0    60   ~ 0
MICROCONTROLLER BLOCK
Text Notes 9650 4500 0    60   ~ 0
EXTERNAL\nCOMMUNICATION\nBLOCK
$Sheet
S 3550 4100 1950 1200
U 57067DF4
F0 "Feeder Block" 60
F1 "feeder_block.sch" 60
F2 "Vlow" I R 5500 5125 60 
F3 "Vhigh" I R 5500 4875 60 
F4 "+5VLow" O R 5500 4350 60 
F5 "GNDLow" O R 5500 4250 60 
F6 "+5VHigh" O L 3550 4750 60 
F7 "+15VHigh" O L 3550 4850 60 
F8 "GNDPwR" I R 5500 4650 60 
F9 "GNDPwR" O L 3550 4650 60 
F10 "Pgood" O R 5500 4450 60 
$EndSheet
Text Label 2250 3550 1    60   ~ 0
Vlow
Text Label 2350 3550 1    60   ~ 0
Vhigh
Text Label 2450 3550 1    48   ~ 0
GNDPwR
Text Label 5875 5125 0    60   ~ 0
Vlow
Text Label 5850 4875 0    60   ~ 0
Vhigh
Text Label 5875 4650 0    60   ~ 0
GNDPwR
Text Label 2650 7400 0    60   ~ 0
Hin
Text Label 2650 7500 0    60   ~ 0
Lin
Text Label 5800 6750 0    60   ~ 0
GNDPWM
Text Label 5800 6900 0    60   ~ 0
PWML1
Text Label 5800 7050 0    60   ~ 0
PWMH1
Text Label 3050 2750 2    60   ~ 0
VL+
Text Label 3050 2850 2    60   ~ 0
VL-
Text Label 3050 3000 2    60   ~ 0
VH+
Text Label 3050 3100 2    60   ~ 0
VH-
Text Label 3050 2350 2    60   ~ 0
ViL-
Text Label 3050 2500 2    60   ~ 0
ViH+
Text Label 3050 2600 2    60   ~ 0
ViH-
Text Label 6100 3550 0    60   ~ 0
GNDLow
Text Label 3000 7100 2    60   ~ 0
VgH
Text Label 3000 7000 2    60   ~ 0
VsH
Text Label 3000 6800 2    60   ~ 0
VgL
Text Label 3000 6700 2    60   ~ 0
VsL
Text Notes 600  650  0    60   ~ 0
POWER CONVERTER
Text Notes 600  1350 0    60   ~ 0
This representation gives an overview of a power converter system.\nEach block is responsible for a different task and they are linked \ntogether through inputs and outputs. \nAn external block to the system is the Debugger which will be \nconnected to the power converter through an specialized shield. \n\n
Text Notes 550  750  0    60   ~ 0
----------------------------
Text Notes 4000 1350 0    60   ~ 0
POWER BLOCK - Power Electronics components, Power Connectors and measuring elements\nMEASUREMENT BLOCK - Isolated measurement amplifiers \nMICROCONTROLLER BLOCK - Arduino shield to connect with an outside microcontroller\nDRIVER BLOCK - Optocoupler, MOSFET Driver and local feeders\nFEEDER BLOCK - Connectors for outside energy input\nDEBUGGER BLOCK - Allows the easy debugging of the system\nEXTERNAL COMMUNICATION BLOCK - To be implemented\n 
Text Notes 8400 700  0    60   ~ 0
LIST OF VARIABLES
Text Notes 8400 1300 0    60   ~ 0
MEASUREMENTS\nV(m)iL+ : Measurements for Low side current\nV(m)iH+ : Measurements for High side current\nV(m)L+ : Measurements for Low side Voltage\nV(m)H+ : Measurements for High side Voltages\n\n
Text Notes 8400 1850 0    60   ~ 0
CONTROLS\nPWML/H1 : PWM control generated by uController\nL/Hin : Inputs of the Driver System\nVgL/H : Gate Voltage at the Low or High side transistors\nVsL/H : Source Voltage at the Low or High side transistors\n\n
Text Notes 8300 2250 0    60   ~ 0
GROUNDS\nGNDPWM : Ground of the PWM pulses generated by uController\nGNDPwR : Ground of the High Voltage side\nGNDLow : Ground of the Low Voltage side
Text Label 3050 1700 2    60   ~ 0
VT1+
Text Label 3050 1800 2    60   ~ 0
VT1-
Text Label 8200 3350 0    60   ~ 0
DE/RE
Text Label 8200 3200 0    60   ~ 0
DI
Text Label 8200 2900 0    60   ~ 0
RO
Text Label 6700 2200 0    60   ~ 0
miso
Text Label 6700 2650 0    60   ~ 0
mosi
Text Label 6700 2850 0    60   ~ 0
SS
Text Label 6700 3050 0    60   ~ 0
clk
Text Label 6100 3450 0    60   ~ 0
+5Vlow
Text Label 8900 3550 0    60   ~ 0
+5Vlow
Text Label 8900 5200 0    60   ~ 0
GNDLow
Text Label 5650 4450 0    60   ~ 0
Pgood
Text Label 2800 3250 0    60   ~ 0
Pgood
Text Label 3050 2250 2    60   ~ 0
ViL+
$Sheet
S 3250 1600 2450 2150
U 57067DAC
F0 "Measurement Block" 60
F1 "measurement_block.sch" 60
F2 "ViH+" I L 3250 2500 60 
F3 "ViH-" I L 3250 2600 60 
F4 "VL+" I L 3250 2750 60 
F5 "VL-" I L 3250 2850 60 
F6 "VH+" I L 3250 3000 60 
F7 "VH-" I L 3250 3100 60 
F8 "+5VHigh" I L 3250 3350 60 
F9 "+5VLow" I R 5700 3600 60 
F10 "GNDPwR" I L 3250 3450 60 
F11 "GNDLow" I R 5700 3700 60 
F12 "VT1+" I L 3250 1700 60 
F13 "VT1-" I L 3250 1800 60 
F14 "miso" O R 5700 2200 60 
F15 "clk" I R 5700 3050 60 
F16 "ss" I R 5700 2850 60 
F17 "mosi" I R 5700 2650 60 
F18 "Pgood" I L 3250 3250 60 
F19 "ViL-" I L 3250 2350 60 
F20 "ViL+" I L 3250 2250 60 
$EndSheet
$Comp
L PWR_FLAG #FLG01
U 1 1 59E00CC3
P 3050 5950
F 0 "#FLG01" H 3050 6025 50  0001 C CNN
F 1 "PWR_FLAG" H 3050 6100 50  0000 C CNN
F 2 "" H 3050 5950 50  0001 C CNN
F 3 "" H 3050 5950 50  0001 C CNN
	1    3050 5950
	1    0    0    -1  
$EndComp
$Sheet
S 550  4025 2050 1650
U 59E1131A
F0 "power_block" 60
F1 "power_block.sch" 60
F2 "VgH" I B 825 5675 60 
F3 "VsH" I B 950 5675 60 
F4 "VgL" I B 1275 5675 60 
F5 "VsL" I B 1425 5675 60 
F6 "ViH+" O T 1550 4025 60 
F7 "ViH-" O T 1650 4025 60 
F8 "VL-" O T 1900 4025 60 
F9 "VH+" O T 2050 4025 60 
F10 "VH-" O T 2150 4025 60 
F11 "Vlow" O T 2250 4025 60 
F12 "Vhigh" O T 2350 4025 60 
F13 "VT1+" O T 850 4025 60 
F14 "VT1-" O T 950 4025 60 
F15 "+5VHigh" I B 2300 5675 60 
F16 "GNDPwR" O T 2450 4025 60 
F17 "ViL-" O T 1400 4025 60 
F18 "ViL+" O T 1300 4025 60 
F19 "VL+" O T 1800 4025 60 
$EndSheet
Wire Wire Line
	2250 3550 2250 4025
Wire Wire Line
	2350 3550 2350 4025
Wire Wire Line
	2450 3550 2450 4025
Wire Wire Line
	5500 4875 5850 4875
Wire Wire Line
	5500 4650 5875 4650
Wire Wire Line
	3250 2250 1300 2250
Wire Wire Line
	1400 2350 3250 2350
Wire Wire Line
	1550 2500 3250 2500
Wire Wire Line
	1650 2600 3250 2600
Wire Wire Line
	1800 2750 3250 2750
Wire Wire Line
	1900 2850 3250 2850
Wire Wire Line
	2050 3000 3250 3000
Wire Wire Line
	2150 3100 3250 3100
Wire Wire Line
	1425 6700 3400 6700
Wire Wire Line
	1275 6800 3400 6800
Wire Wire Line
	825  7100 3400 7100
Wire Wire Line
	2650 7400 3400 7400
Wire Wire Line
	2650 7500 3400 7500
Wire Wire Line
	2750 3450 3250 3450
Wire Wire Line
	2650 3350 3250 3350
Wire Wire Line
	5750 4250 5500 4250
Wire Wire Line
	5500 4350 5850 4350
Wire Wire Line
	6550 3450 6550 3600
Wire Wire Line
	5750 3450 6550 3450
Wire Wire Line
	6100 3550 6450 3550
Wire Wire Line
	6450 3550 6450 3600
Wire Wire Line
	5525 6750 6500 6750
Wire Wire Line
	5525 6900 6600 6900
Wire Wire Line
	5525 7050 6700 7050
Wire Wire Line
	6500 6750 6500 6250
Wire Wire Line
	6500 6250 7100 6250
Wire Wire Line
	7100 6250 7100 5900
Wire Wire Line
	6600 6900 6600 6350
Wire Wire Line
	6600 6350 7250 6350
Wire Wire Line
	7250 6350 7250 5900
Wire Wire Line
	6700 7050 6700 6450
Wire Wire Line
	6700 6450 7400 6450
Wire Wire Line
	7400 6450 7400 5900
Wire Wire Line
	5750 3700 5750 4250
Wire Wire Line
	5750 3700 5700 3700
Wire Wire Line
	5850 4350 5850 3600
Wire Wire Line
	5850 3600 5700 3600
Wire Wire Line
	5750 3450 5750 3600
Connection ~ 5750 3600
Wire Wire Line
	6100 3550 6100 3750
Wire Wire Line
	6100 3750 5750 3750
Connection ~ 5750 3750
Wire Notes Line
	600  1350 2000 1350
Wire Notes Line
	2200 1350 4700 1350
Wire Notes Line
	4850 1350 8150 1350
Wire Wire Line
	2650 4750 3550 4750
Wire Wire Line
	2650 4750 2650 3350
Wire Wire Line
	3550 4850 2950 4850
Wire Wire Line
	2950 4850 2950 5950
Wire Wire Line
	2950 5950 3400 5950
Wire Wire Line
	3550 4650 2750 4650
Wire Wire Line
	2750 3450 2750 6150
Wire Wire Line
	2850 4750 2850 6050
Wire Wire Line
	2850 6050 3400 6050
Connection ~ 2850 4750
Wire Wire Line
	2750 6150 3400 6150
Connection ~ 2750 4650
Wire Notes Line
	3850 600  3850 1300
Wire Wire Line
	2150 3100 2150 4025
Wire Wire Line
	2050 3000 2050 4025
Wire Wire Line
	1900 2850 1900 4025
Wire Wire Line
	1650 2600 1650 4025
Wire Wire Line
	1550 2500 1550 4025
Wire Wire Line
	950  1800 950  4025
Wire Wire Line
	950  1800 3250 1800
Wire Wire Line
	850  1700 3250 1700
Wire Wire Line
	2700 4750 2700 6400
Wire Wire Line
	2700 6400 2300 6400
Connection ~ 2700 4750
Wire Wire Line
	950  7000 3400 7000
Wire Wire Line
	2300 6400 2300 5675
Wire Wire Line
	850  1700 850  4025
Wire Notes Line
	8250 500  8250 2350
Wire Notes Line
	8250 2350 11150 2350
Wire Wire Line
	5700 2200 7400 2200
Wire Wire Line
	7400 2200 7400 3600
Wire Wire Line
	5700 2650 7300 2650
Wire Wire Line
	7300 2650 7300 3600
Wire Wire Line
	5700 2850 7200 2850
Wire Wire Line
	7200 2850 7200 3600
Wire Wire Line
	7100 3600 7100 3050
Wire Wire Line
	7100 3050 5700 3050
Wire Wire Line
	7800 3600 7800 2900
Wire Wire Line
	7800 2900 11000 2900
Wire Wire Line
	11000 2900 11000 4400
Wire Wire Line
	11000 4400 10700 4400
Wire Wire Line
	7900 3600 7900 3200
Wire Wire Line
	7900 3200 8700 3200
Wire Wire Line
	8700 3200 8700 4300
Wire Wire Line
	8700 4300 9050 4300
Wire Wire Line
	9050 4450 8600 4450
Wire Wire Line
	8600 4450 8600 3350
Wire Wire Line
	8600 3350 8000 3350
Wire Wire Line
	8000 3350 8000 3600
Wire Wire Line
	9050 4050 8900 4050
Wire Wire Line
	8900 4050 8900 3550
Wire Wire Line
	9050 4700 8900 4700
Wire Wire Line
	8900 4700 8900 5200
Wire Wire Line
	5500 4450 5650 4450
Wire Wire Line
	3250 3250 2800 3250
Wire Wire Line
	1400 2350 1400 4025
Wire Wire Line
	1300 2250 1300 4025
Wire Wire Line
	5500 5125 5875 5125
Connection ~ 3050 5950
Wire Wire Line
	1800 2750 1800 4025
Wire Wire Line
	1425 5675 1425 6700
Wire Wire Line
	1275 5675 1275 6800
Wire Wire Line
	950  5675 950  7000
Wire Wire Line
	825  5675 825  7100
$Comp
L PWR_FLAG #FLG02
U 1 1 59DC49A1
P 1425 2250
F 0 "#FLG02" H 1425 2325 50  0001 C CNN
F 1 "PWR_FLAG" H 1425 2400 50  0000 C CNN
F 2 "" H 1425 2250 50  0001 C CNN
F 3 "" H 1425 2250 50  0001 C CNN
	1    1425 2250
	1    0    0    -1  
$EndComp
$Comp
L PWR_FLAG #FLG03
U 1 1 59DC543B
P 1750 2600
F 0 "#FLG03" H 1750 2675 50  0001 C CNN
F 1 "PWR_FLAG" H 1750 2750 50  0000 C CNN
F 2 "" H 1750 2600 50  0001 C CNN
F 3 "" H 1750 2600 50  0001 C CNN
	1    1750 2600
	1    0    0    -1  
$EndComp
Connection ~ 1750 2600
Connection ~ 1425 2250
$Sheet
S 3400 5800 2125 1900
U 59DD8F51
F0 "Sheet59DD8F50" 60
F1 "driver_block.sch" 60
F2 "PWMH1" I R 5525 7050 60 
F3 "PWML1" I R 5525 6900 60 
F4 "VgH" O L 3400 7100 60 
F5 "VsH" O L 3400 7000 60 
F6 "VgL" O L 3400 6800 60 
F7 "VsL" O L 3400 6700 60 
F8 "GNDPWM" I R 5525 6750 60 
F9 "GNDPwR" I L 3400 6150 60 
F10 "Hin" O L 3400 7400 60 
F11 "Lin" O L 3400 7500 60 
F12 "+5VHigh" I L 3400 6050 60 
F13 "+15VHigh" I L 3400 5950 60 
$EndSheet
$Comp
L GNDPWR #PWR04
U 1 1 59DDF534
P 5875 4650
F 0 "#PWR04" H 5875 4450 50  0001 C CNN
F 1 "GNDPWR" H 5875 4520 50  0000 C CNN
F 2 "" H 5875 4600 50  0001 C CNN
F 3 "" H 5875 4600 50  0001 C CNN
	1    5875 4650
	1    0    0    -1  
$EndComp
$EndSCHEMATC
