(module switch (layer F.Cu) (tedit 59DC87B4)
  (fp_text reference REF** (at 4.75 -1.5) (layer F.SilkS)
    (effects (font (size 1 1) (thickness 0.15)))
  )
  (fp_text value switch (at 0 -5.75) (layer F.Fab)
    (effects (font (size 1 1) (thickness 0.15)))
  )
  (fp_line (start 1.25 0) (end 1.25 5) (layer F.SilkS) (width 0.15))
  (fp_line (start 1.25 5) (end -1.25 5) (layer F.SilkS) (width 0.15))
  (fp_line (start -1.25 5) (end -1.25 -5) (layer F.SilkS) (width 0.15))
  (fp_line (start -1.25 -5) (end 1.25 -5) (layer F.SilkS) (width 0.15))
  (fp_line (start 1.25 -5) (end 1.25 0) (layer F.SilkS) (width 0.15))
  (pad 2 thru_hole circle (at 0 0) (size 1.524 1.524) (drill 0.762) (layers *.Cu *.Mask))
  (pad 3 thru_hole circle (at 0 -2.54) (size 1.524 1.524) (drill 0.762) (layers *.Cu *.Mask))
  (pad 1 thru_hole trapezoid (at 0 2.54) (size 1.524 1.524) (drill 0.762) (layers *.Cu *.Mask))
)
