(module via1mm (layer F.Cu) (tedit 59B8F2C3)
  (descr "module 1 pin (ou trou mecanique de percage)")
  (tags DEV)
  (fp_text reference Via** (at -1 -1) (layer F.SilkS)
    (effects (font (size 1 1) (thickness 0.15)))
  )
  (fp_text value "" (at 0 3) (layer F.Fab)
    (effects (font (size 1 1) (thickness 0.15)))
  )
  (pad 1 thru_hole circle (at 0 0) (size 1.3 1.3) (drill 0.7) (layers *.Cu *.Mask))
)
