(module C_Several_Sizes (layer F.Cu) (tedit 0)
  (descr "Radial Electrolytic Capacitor Diameter 30mm x Length 51mm, Pitch 10mm")
  (tags "Electrolytic Capacitor")
  (fp_text reference REF** (at 5 -16.3) (layer F.SilkS)
    (effects (font (size 1 1) (thickness 0.15)))
  )
  (fp_text value C_Radial_D30_L51_P10 (at 5 16.3) (layer F.Fab)
    (effects (font (size 1 1) (thickness 0.15)))
  )
  (fp_line (start 5.075 -15) (end 5.075 15) (layer F.SilkS) (width 0.15))
  (fp_line (start 5.215 -14.998) (end 5.215 14.998) (layer F.SilkS) (width 0.15))
  (fp_line (start 5.355 -14.996) (end 5.355 14.996) (layer F.SilkS) (width 0.15))
  (fp_line (start 5.495 -14.992) (end 5.495 14.992) (layer F.SilkS) (width 0.15))
  (fp_line (start 5.635 -14.987) (end 5.635 14.987) (layer F.SilkS) (width 0.15))
  (fp_line (start 5.775 -14.98) (end 5.775 14.98) (layer F.SilkS) (width 0.15))
  (fp_line (start 5.915 -14.972) (end 5.915 14.972) (layer F.SilkS) (width 0.15))
  (fp_line (start 6.055 -14.963) (end 6.055 14.963) (layer F.SilkS) (width 0.15))
  (fp_line (start 6.195 -14.952) (end 6.195 14.952) (layer F.SilkS) (width 0.15))
  (fp_line (start 6.335 -14.94) (end 6.335 14.94) (layer F.SilkS) (width 0.15))
  (fp_line (start 6.475 -14.927) (end 6.475 14.927) (layer F.SilkS) (width 0.15))
  (fp_line (start 6.615 -14.913) (end 6.615 14.913) (layer F.SilkS) (width 0.15))
  (fp_line (start 6.755 -14.897) (end 6.755 14.897) (layer F.SilkS) (width 0.15))
  (fp_line (start 6.895 -14.88) (end 6.895 14.88) (layer F.SilkS) (width 0.15))
  (fp_line (start 7.035 -14.861) (end 7.035 14.861) (layer F.SilkS) (width 0.15))
  (fp_line (start 7.175 -14.841) (end 7.175 14.841) (layer F.SilkS) (width 0.15))
  (fp_line (start 7.315 -14.82) (end 7.315 14.82) (layer F.SilkS) (width 0.15))
  (fp_line (start 7.455 -14.798) (end 7.455 14.798) (layer F.SilkS) (width 0.15))
  (fp_line (start 7.595 -14.774) (end 7.595 14.774) (layer F.SilkS) (width 0.15))
  (fp_line (start 7.735 -14.749) (end 7.735 14.749) (layer F.SilkS) (width 0.15))
  (fp_line (start 7.875 -14.722) (end 7.875 14.722) (layer F.SilkS) (width 0.15))
  (fp_line (start 8.015 -14.694) (end 8.015 14.694) (layer F.SilkS) (width 0.15))
  (fp_line (start 8.155 -14.664) (end 8.155 14.664) (layer F.SilkS) (width 0.15))
  (fp_line (start 8.295 -14.634) (end 8.295 14.634) (layer F.SilkS) (width 0.15))
  (fp_line (start 8.435 -14.601) (end 8.435 14.601) (layer F.SilkS) (width 0.15))
  (fp_line (start 8.575 -14.568) (end 8.575 14.568) (layer F.SilkS) (width 0.15))
  (fp_line (start 8.715 -14.533) (end 8.715 -0.197) (layer F.SilkS) (width 0.15))
  (fp_line (start 8.715 0.197) (end 8.715 14.533) (layer F.SilkS) (width 0.15))
  (fp_line (start 8.855 -14.496) (end 8.855 -0.616) (layer F.SilkS) (width 0.15))
  (fp_line (start 8.855 0.616) (end 8.855 14.496) (layer F.SilkS) (width 0.15))
  (fp_line (start 8.995 -14.458) (end 8.995 -0.825) (layer F.SilkS) (width 0.15))
  (fp_line (start 8.995 0.825) (end 8.995 14.458) (layer F.SilkS) (width 0.15))
  (fp_line (start 9.135 -14.419) (end 9.135 -0.97) (layer F.SilkS) (width 0.15))
  (fp_line (start 9.135 0.97) (end 9.135 14.419) (layer F.SilkS) (width 0.15))
  (fp_line (start 9.275 -14.378) (end 9.275 -1.079) (layer F.SilkS) (width 0.15))
  (fp_line (start 9.275 1.079) (end 9.275 14.378) (layer F.SilkS) (width 0.15))
  (fp_line (start 9.415 -14.336) (end 9.415 -1.161) (layer F.SilkS) (width 0.15))
  (fp_line (start 9.415 1.161) (end 9.415 14.336) (layer F.SilkS) (width 0.15))
  (fp_line (start 9.555 -14.292) (end 9.555 -1.221) (layer F.SilkS) (width 0.15))
  (fp_line (start 9.555 1.221) (end 9.555 14.292) (layer F.SilkS) (width 0.15))
  (fp_line (start 9.695 -14.246) (end 9.695 -1.264) (layer F.SilkS) (width 0.15))
  (fp_line (start 9.695 1.264) (end 9.695 14.246) (layer F.SilkS) (width 0.15))
  (fp_line (start 9.835 -14.199) (end 9.835 -1.289) (layer F.SilkS) (width 0.15))
  (fp_line (start 9.835 1.289) (end 9.835 14.199) (layer F.SilkS) (width 0.15))
  (fp_line (start 9.975 -14.151) (end 9.975 -1.3) (layer F.SilkS) (width 0.15))
  (fp_line (start 9.975 1.3) (end 9.975 14.151) (layer F.SilkS) (width 0.15))
  (fp_line (start 10.115 -14.101) (end 10.115 -1.295) (layer F.SilkS) (width 0.15))
  (fp_line (start 10.115 1.295) (end 10.115 14.101) (layer F.SilkS) (width 0.15))
  (fp_line (start 10.255 -14.049) (end 10.255 -1.275) (layer F.SilkS) (width 0.15))
  (fp_line (start 10.255 1.275) (end 10.255 14.049) (layer F.SilkS) (width 0.15))
  (fp_line (start 10.395 -13.996) (end 10.395 -1.239) (layer F.SilkS) (width 0.15))
  (fp_line (start 10.395 1.239) (end 10.395 13.996) (layer F.SilkS) (width 0.15))
  (fp_line (start 10.535 -13.941) (end 10.535 -1.185) (layer F.SilkS) (width 0.15))
  (fp_line (start 10.535 1.185) (end 10.535 13.941) (layer F.SilkS) (width 0.15))
  (fp_line (start 10.675 -13.885) (end 10.675 -1.111) (layer F.SilkS) (width 0.15))
  (fp_line (start 10.675 1.111) (end 10.675 13.885) (layer F.SilkS) (width 0.15))
  (fp_line (start 10.815 -13.827) (end 10.815 -1.013) (layer F.SilkS) (width 0.15))
  (fp_line (start 10.815 1.013) (end 10.815 13.827) (layer F.SilkS) (width 0.15))
  (fp_line (start 10.955 -13.767) (end 10.955 -0.882) (layer F.SilkS) (width 0.15))
  (fp_line (start 10.955 0.882) (end 10.955 13.767) (layer F.SilkS) (width 0.15))
  (fp_line (start 11.095 -13.706) (end 11.095 -0.701) (layer F.SilkS) (width 0.15))
  (fp_line (start 11.095 0.701) (end 11.095 13.706) (layer F.SilkS) (width 0.15))
  (fp_line (start 11.235 -13.643) (end 11.235 -0.406) (layer F.SilkS) (width 0.15))
  (fp_line (start 11.235 0.406) (end 11.235 13.643) (layer F.SilkS) (width 0.15))
  (fp_line (start 11.375 -13.578) (end 11.375 13.578) (layer F.SilkS) (width 0.15))
  (fp_line (start 11.515 -13.511) (end 11.515 13.511) (layer F.SilkS) (width 0.15))
  (fp_line (start 11.655 -13.443) (end 11.655 13.443) (layer F.SilkS) (width 0.15))
  (fp_line (start 11.795 -13.373) (end 11.795 13.373) (layer F.SilkS) (width 0.15))
  (fp_line (start 11.935 -13.301) (end 11.935 13.301) (layer F.SilkS) (width 0.15))
  (fp_line (start 12.075 -13.227) (end 12.075 13.227) (layer F.SilkS) (width 0.15))
  (fp_line (start 12.215 -13.151) (end 12.215 13.151) (layer F.SilkS) (width 0.15))
  (fp_line (start 12.355 -13.073) (end 12.355 13.073) (layer F.SilkS) (width 0.15))
  (fp_line (start 12.495 -12.993) (end 12.495 12.993) (layer F.SilkS) (width 0.15))
  (fp_line (start 12.635 -12.911) (end 12.635 12.911) (layer F.SilkS) (width 0.15))
  (fp_line (start 12.775 -12.828) (end 12.775 12.828) (layer F.SilkS) (width 0.15))
  (fp_line (start 12.915 -12.742) (end 12.915 12.742) (layer F.SilkS) (width 0.15))
  (fp_line (start 13.055 -12.654) (end 13.055 12.654) (layer F.SilkS) (width 0.15))
  (fp_line (start 13.195 -12.564) (end 13.195 12.564) (layer F.SilkS) (width 0.15))
  (fp_line (start 13.335 -12.471) (end 13.335 12.471) (layer F.SilkS) (width 0.15))
  (fp_line (start 13.475 -12.376) (end 13.475 12.376) (layer F.SilkS) (width 0.15))
  (fp_line (start 13.615 -12.279) (end 13.615 12.279) (layer F.SilkS) (width 0.15))
  (fp_line (start 13.755 -12.18) (end 13.755 12.18) (layer F.SilkS) (width 0.15))
  (fp_line (start 13.895 -12.078) (end 13.895 12.078) (layer F.SilkS) (width 0.15))
  (fp_line (start 14.035 -11.974) (end 14.035 11.974) (layer F.SilkS) (width 0.15))
  (fp_line (start 14.175 -11.867) (end 14.175 11.867) (layer F.SilkS) (width 0.15))
  (fp_line (start 14.315 -11.757) (end 14.315 11.757) (layer F.SilkS) (width 0.15))
  (fp_line (start 14.455 -11.645) (end 14.455 11.645) (layer F.SilkS) (width 0.15))
  (fp_line (start 14.595 -11.53) (end 14.595 11.53) (layer F.SilkS) (width 0.15))
  (fp_line (start 14.735 -11.412) (end 14.735 11.412) (layer F.SilkS) (width 0.15))
  (fp_line (start 14.875 -11.291) (end 14.875 11.291) (layer F.SilkS) (width 0.15))
  (fp_line (start 15.015 -11.167) (end 15.015 11.167) (layer F.SilkS) (width 0.15))
  (fp_line (start 15.155 -11.04) (end 15.155 11.04) (layer F.SilkS) (width 0.15))
  (fp_line (start 15.295 -10.909) (end 15.295 10.909) (layer F.SilkS) (width 0.15))
  (fp_line (start 15.435 -10.775) (end 15.435 10.775) (layer F.SilkS) (width 0.15))
  (fp_line (start 15.575 -10.638) (end 15.575 10.638) (layer F.SilkS) (width 0.15))
  (fp_line (start 15.715 -10.497) (end 15.715 10.497) (layer F.SilkS) (width 0.15))
  (fp_line (start 15.855 -10.352) (end 15.855 10.352) (layer F.SilkS) (width 0.15))
  (fp_line (start 15.995 -10.203) (end 15.995 10.203) (layer F.SilkS) (width 0.15))
  (fp_line (start 16.135 -10.05) (end 16.135 10.05) (layer F.SilkS) (width 0.15))
  (fp_line (start 16.275 -9.893) (end 16.275 9.893) (layer F.SilkS) (width 0.15))
  (fp_line (start 16.415 -9.731) (end 16.415 9.731) (layer F.SilkS) (width 0.15))
  (fp_line (start 16.555 -9.565) (end 16.555 9.565) (layer F.SilkS) (width 0.15))
  (fp_line (start 16.695 -9.393) (end 16.695 9.393) (layer F.SilkS) (width 0.15))
  (fp_line (start 16.835 -9.216) (end 16.835 9.216) (layer F.SilkS) (width 0.15))
  (fp_line (start 16.975 -9.033) (end 16.975 9.033) (layer F.SilkS) (width 0.15))
  (fp_line (start 17.115 -8.845) (end 17.115 8.845) (layer F.SilkS) (width 0.15))
  (fp_line (start 17.255 -8.65) (end 17.255 8.65) (layer F.SilkS) (width 0.15))
  (fp_line (start 17.395 -8.448) (end 17.395 8.448) (layer F.SilkS) (width 0.15))
  (fp_line (start 17.535 -8.239) (end 17.535 8.239) (layer F.SilkS) (width 0.15))
  (fp_line (start 17.675 -8.021) (end 17.675 8.021) (layer F.SilkS) (width 0.15))
  (fp_line (start 17.815 -7.796) (end 17.815 7.796) (layer F.SilkS) (width 0.15))
  (fp_line (start 17.955 -7.561) (end 17.955 7.561) (layer F.SilkS) (width 0.15))
  (fp_line (start 18.095 -7.316) (end 18.095 7.316) (layer F.SilkS) (width 0.15))
  (fp_line (start 18.235 -7.059) (end 18.235 7.059) (layer F.SilkS) (width 0.15))
  (fp_line (start 18.375 -6.79) (end 18.375 6.79) (layer F.SilkS) (width 0.15))
  (fp_line (start 18.515 -6.507) (end 18.515 6.507) (layer F.SilkS) (width 0.15))
  (fp_line (start 18.655 -6.208) (end 18.655 6.208) (layer F.SilkS) (width 0.15))
  (fp_line (start 18.795 -5.89) (end 18.795 5.89) (layer F.SilkS) (width 0.15))
  (fp_line (start 18.935 -5.551) (end 18.935 5.551) (layer F.SilkS) (width 0.15))
  (fp_line (start 19.075 -5.186) (end 19.075 5.186) (layer F.SilkS) (width 0.15))
  (fp_line (start 19.215 -4.789) (end 19.215 4.789) (layer F.SilkS) (width 0.15))
  (fp_line (start 19.355 -4.351) (end 19.355 4.351) (layer F.SilkS) (width 0.15))
  (fp_line (start 19.495 -3.859) (end 19.495 3.859) (layer F.SilkS) (width 0.15))
  (fp_line (start 19.635 -3.289) (end 19.635 3.289) (layer F.SilkS) (width 0.15))
  (fp_line (start 19.775 -2.588) (end 19.775 2.588) (layer F.SilkS) (width 0.15))
  (fp_line (start 19.915 -1.595) (end 19.915 1.595) (layer F.SilkS) (width 0.15))
  (fp_circle (center 10 0) (end 10 -1.3) (layer F.SilkS) (width 0.15))
  (fp_circle (center 5 0) (end 5 -15.0375) (layer F.SilkS) (width 0.15))
  (fp_circle (center 5 0) (end 5 -15.3) (layer F.CrtYd) (width 0.05))
  (pad 1 thru_hole rect (at 0 0) (size 2 2) (drill 1.5) (layers *.Cu *.Mask F.SilkS))
  (pad 2 thru_hole circle (at 10 0) (size 2 2) (drill 1.5) (layers *.Cu *.Mask F.SilkS))
  (model Capacitors_ThroughHole.3dshapes/C_Radial_D30_L51_P10.wrl
    (at (xyz 0.19685 0 0))
    (scale (xyz 1 1 1))
    (rotate (xyz 0 0 90))
  )
)
