(module ModuleTTLRS485 (layer F.Cu) (tedit 597754ED)
  (descr "Through hole straight pin header, 1x04, 2.54mm pitch, single row")
  (tags "Through hole pin header THT 1x04 2.54mm single row")
  (fp_text reference REF** (at 21 3 180) (layer F.SilkS)
    (effects (font (size 1 1) (thickness 0.15)))
  )
  (fp_text value "Module TTL_RS485" (at 20 8) (layer F.Fab)
    (effects (font (size 1 1) (thickness 0.15)))
  )
  (fp_line (start 40 6) (end 43 6) (layer F.SilkS) (width 0.15))
  (fp_line (start 40 -6) (end 43 -6) (layer F.SilkS) (width 0.15))
  (fp_line (start 41 6) (end -2 6) (layer F.SilkS) (width 0.15))
  (fp_line (start -2 -6) (end 41 -6) (layer F.SilkS) (width 0.15))
  (fp_line (start -2 -6) (end -2 6) (layer F.SilkS) (width 0.15))
  (fp_line (start 43 -6) (end 43 6) (layer F.SilkS) (width 0.15))
  (fp_text user RO (at 39 -4 180) (layer F.SilkS)
    (effects (font (size 1 1) (thickness 0.15)))
  )
  (fp_text user RE (at 39 -2 180) (layer F.SilkS)
    (effects (font (size 1 1) (thickness 0.15)))
  )
  (fp_text user DE (at 39 1 180) (layer F.SilkS)
    (effects (font (size 1 1) (thickness 0.15)))
  )
  (fp_text user DI (at 39 4) (layer F.SilkS)
    (effects (font (size 1 1) (thickness 0.15)))
  )
  (fp_text user GND (at 1.8 4 90) (layer F.SilkS)
    (effects (font (size 1 1) (thickness 0.15)))
  )
  (fp_text user A (at 1.8 1 90) (layer F.SilkS)
    (effects (font (size 1 1) (thickness 0.15)))
  )
  (fp_text user B (at 1.8 -1 90) (layer F.SilkS)
    (effects (font (size 1 1) (thickness 0.15)))
  )
  (fp_text user VCC (at 1.8 -4 90) (layer F.SilkS)
    (effects (font (size 1 1) (thickness 0.15)))
  )
  (fp_line (start 42.605 4.48) (end 41.97 5.115) (layer F.Fab) (width 0.1))
  (fp_line (start 42.605 -5.045) (end 42.605 4.48) (layer F.Fab) (width 0.1))
  (fp_line (start 40.065 -5.045) (end 42.605 -5.045) (layer F.Fab) (width 0.1))
  (fp_line (start 40.065 5.115) (end 40.065 -5.045) (layer F.Fab) (width 0.1))
  (fp_line (start 41.97 5.115) (end 40.065 5.115) (layer F.Fab) (width 0.1))
  (fp_line (start -0.835 -5.08) (end 1.07 -5.08) (layer F.Fab) (width 0.1))
  (fp_line (start 1.07 -5.08) (end 1.07 5.08) (layer F.Fab) (width 0.1))
  (fp_line (start 1.07 5.08) (end -1.47 5.08) (layer F.Fab) (width 0.1))
  (fp_line (start -1.47 5.08) (end -1.47 -4.445) (layer F.Fab) (width 0.1))
  (fp_line (start -1.47 -4.445) (end -0.835 -5.08) (layer F.Fab) (width 0.1))
  (fp_text user %R (at 21 -2) (layer F.Fab)
    (effects (font (size 1 1) (thickness 0.15)))
  )
  (pad 8 thru_hole oval (at 41.335 -3.775 180) (size 2 2) (drill 1) (layers *.Cu *.Mask))
  (pad 7 thru_hole oval (at 41.335 -1.235 180) (size 2 2) (drill 1) (layers *.Cu *.Mask))
  (pad 6 thru_hole oval (at 41.335 1.305 180) (size 2 2) (drill 1) (layers *.Cu *.Mask))
  (pad 5 thru_hole rect (at 41.335 3.845 180) (size 2 2) (drill 1) (layers *.Cu *.Mask))
  (pad 1 thru_hole rect (at -0.2 -3.81) (size 2 2) (drill 1) (layers *.Cu *.Mask))
  (pad 2 thru_hole oval (at -0.2 -1.27) (size 2 2) (drill 1) (layers *.Cu *.Mask))
  (pad 3 thru_hole oval (at -0.2 1.27) (size 2 2) (drill 1) (layers *.Cu *.Mask))
  (pad 4 thru_hole oval (at -0.2 3.81) (size 2 2) (drill 1) (layers *.Cu *.Mask))
  (model ${KISYS3DMOD}/Pin_Headers.3dshapes/Pin_Header_Straight_1x04_Pitch2.54mm.wrl
    (at (xyz 0 0 0))
    (scale (xyz 1 1 1))
    (rotate (xyz 0 0 0))
  )
)
